What’s new in the tidyverse - pick(), reframe(), and arrange()
…
reframe() always returns an ungrouped data frame (i.e., not a grouped data frame even if the input was grouped).

arrange()

When sorting character vectors, the C locale is now the default, rather than the system locale. This makes dplyr 1.1.0 wayyy faster at sorting character variables.

library(withr)
library(dplyr)

df <- tibble(x = stringi::stri_rand_strings(n = 5e5, length = 15))
df

# A tibble: 500,000 × 1
   x              
   <chr>          
 1 h0myzPRtu57XbQT
 2 aaYu8q2bRepCcq1
 3 DVFhH1yGIMLUedf
 4 Esf49mkgK2Oz5rs
 5 p4KYioo2nx5fuIn
 6 CoTjxgZB6MdWcMM
 7 Xag5GvaJXXNY60G
 8 Cz2Jvn9aFySJm6r
 9 zyWGJPkSqXm6VB1
10 gciv0cIZLOfGvr8
# … with 499,990 more rows
…
